AWSTATS DATA FILE 7.4 (build 20140726)
# If you remove this file, all statistics for date 201708 will be lost/reset.
# Last config file used to build this data file was /home/chefslice/tmp/awstats/awstats.chefslice.com.conf.

# Position (offset in bytes) in this file for beginning of each section for
# direct I/O access. If you made changes somewhere in this file, you should
# also remove completely the MAP section (AWStats will rewrite it at next
# update).
BEGIN_MAP 28
POS_GENERAL 2011                
POS_TIME 2683                
POS_VISITOR 8199                
POS_DAY 9940                
POS_DOMAIN 3364                
POS_LOGIN 3723                
POS_ROBOT 3878                
POS_WORMS 4160                
POS_EMAILSENDER 4291                
POS_EMAILRECEIVER 4434                
POS_SESSION 10124               
POS_SIDER 10319               
POS_FILETYPES 4569                
POS_DOWNLOADS 4840                
POS_OS 4888                
POS_BROWSER 5105                
POS_SCREENSIZE 5689                
POS_UNKNOWNREFERER 5763                
POS_UNKNOWNREFERERBROWSER 5921                
POS_ORIGIN 6146                
POS_SEREFERRALS 6281                
POS_PAGEREFS 6434                
POS_SEARCHWORDS 6712                
POS_KEYWORDS 6873                
POS_MISC 2346                
POS_ERRORS 6941                
POS_CLUSTER 3579                
POS_SIDER_404 7080                
END_MAP

# LastLine    = Date of last record processed - Last record line number in last log - Last record offset in last log - Last record signature value
# FirstTime   = Date of first visit for history file
# LastTime    = Date of last visit for history file
# LastUpdate  = Date of last update - Nb of parsed records - Nb of parsed old records - Nb of parsed new records - Nb of parsed corrupted - Nb of parsed dropped
# TotalVisits = Number of visits
# TotalUnique = Number of unique visitors
# MonthHostsKnown   = Number of hosts known
# MonthHostsUnKnown = Number of hosts unknown
BEGIN_GENERAL 8
LastLine 20170901082934 1 0 9852094967837
FirstTime 20170827114734
LastTime 20170831173144
LastUpdate 20170902083718 1 0 0 0 0
TotalVisits 63                  
TotalUnique 38                  
MonthHostsKnown 0                   
MonthHostsUnknown 45                  
END_GENERAL

# Misc ID - Pages - Hits - Bandwidth
BEGIN_MISC 10
JavaEnabled 0 0 0
QuickTimeSupport 0 0 0
DirectorSupport 0 0 0
TotalMisc 0 0 0
PDFSupport 0 0 0
FlashSupport 0 0 0
JavascriptDisabled 0 0 0
AddToFavourites 0 17 0
WindowsMediaPlayerSupport 0 0 0
RealPlayerSupport 0 0 0
END_MISC

# Hour - Pages - Hits - Bandwidth - Not viewed Pages - Not viewed Hits - Not viewed Bandwidth
BEGIN_TIME 24
0 16 101 4069736 8 14 32426
1 6 12 121824 11 14 197494
2 20 71 12944374 4 17 135912
3 31 198 11619788 8 50 340731
4 5 5 64924 1 3 10309
5 3 3 36174 2 2 33292
6 1 1 16660 0 0 0
7 8 9 162457 0 2 0
8 2 3 7726 1 3 14974
9 11 89 1045394 8 11 77740
10 3 3 22284 0 0 0
11 6 27 6642504 1 2 0
12 3 23 6302097 1 1 16536
13 0 0 0 3 14 137012
14 4 4 19872 0 1 0
15 23 137 14451260 19 26 129820
16 2 2 19519 2 2 99255
17 9 9 78517 1 5 57198
18 1 1 2849 0 0 0
19 2 23 6601320 2 2 83383
20 3 3 36308 2 3 65312
21 3 3 49829 0 0 0
22 3 29 734496 1 2 66629
23 0 0 0 0 0 0
END_TIME

# Domain - Pages - Hits - Bandwidth
# The 25 first Pages must be first (order not required for others)
BEGIN_DOMAIN 10
pk 76 371 25872885
us 50 139 26465912
il 16 157 4942851
ru 8 60 7214108
cn 5 5 57812
gb 4 18 440824
ca 3 3 36023
sg 1 1 16646
de 1 1 0
es 1 1 2851
END_DOMAIN

# Cluster ID - Pages - Hits - Bandwidth
BEGIN_CLUSTER 0
END_CLUSTER

# Login - Pages - Hits - Bandwidth - Last visit
# The 10 first Pages must be first (order not required for others)
BEGIN_LOGIN 0
END_LOGIN

# Robot ID - Hits - Bandwidth - Last visit - Hits on robots.txt
# The 25 first Hits must be first (order not required for others)
BEGIN_ROBOT 4
googlebot 13 76588 20170831084516 1
no_user_agent 4 66730 20170830195111 0
bot[\s_+:,\.\;\/\\-] 1 16646 20170830055243 0
curl 1 2850 20170828152007 0
END_ROBOT

# Worm ID - Hits - Bandwidth - Last visit
# The 5 first Hits must be first (order not required for others)
BEGIN_WORMS 0
END_WORMS

# EMail - Hits - Bandwidth - Last visit
# The 20 first Hits must be first (order not required for others)
BEGIN_EMAILSENDER 0
END_EMAILSENDER

# EMail - Hits - Bandwidth - Last visit
# The 20 first hits must be first (order not required for others)
BEGIN_EMAILRECEIVER 0
END_EMAILRECEIVER

# Files type - Hits - Bandwidth - Bandwidth without compression - Bandwidth after compression
BEGIN_FILETYPES 11
Unknown 42 170268 0 0
css 156 788112 0 0
png 31 614005 0 0
woff2 15 943156 0 0
php 3 4400 0 0
js 201 1587798 0 0
ttf 4 362480 0 0
woff 10 652564 0 0
jpg 203 58971586 0 0
map 2 155207 0 0
html 89 800336 0 0
END_FILETYPES

# Downloads - Hits - Bandwidth
BEGIN_DOWNLOADS 0
END_DOWNLOADS

# OS ID - Hits
BEGIN_OS ID - Hits - Pages 12
win2003 2 1
win8.1 3 3
Unknown 2 2
win7 93 20
macosx7 1 1
linux 54 8
linuxandroid 1 1
winlong 16 16
winxp 8 8
winnt 574 103
macosx5 1 1
winunknown 1 1
END_OS

# Browser ID - Hits - Pages
BEGIN_BROWSER 28
firefox14.0.1 1 1
chrome21.0.1180.89 4 4
chrome60.0.3112.101 175 43
firefox15.0 58 6
opera8.00 2 2
chrome34.0.1847.137 1 1
chrome60.0.3112.90 174 19
msie8.0 38 17
opera12.18 1 1
chrome41.0.2228.0 2 2
chrome41.0.2272.118 44 4
chrome11.0.696.71 2 2
android 1 1
netscape5.0 4 4
chrome60.0.3112.113 196 33
firefox30.0 1 1
chrome37.0.2049.0 1 1
firefox31.0 7 1
firefox33.0 6 6
chrome53.0.2785.143 1 1
chrome57.0.2987.98 23 2
msie7.0 2 1
Unknown 3 3
chrome49.0.2623.75 1 1
firefox3.6.13 1 1
firefox51.0 2 2
firefox50.0 4 4
firefox52.0 1 1
END_BROWSER

# Screen size - Hits
BEGIN_SCREENSIZE 0
END_SCREENSIZE

# Unknown referer OS - Last visit date
BEGIN_UNKNOWNREFERER 2
python-requests/2.13.0 20170829021725
Python-urllib/2.7 20170829174913
END_UNKNOWNREFERER

# Unknown referer Browser - Last visit date
BEGIN_UNKNOWNREFERERBROWSER 3
python-requests/2.7.0_CPython/2.7.6_Windows/2008ServerR2 20170828034753
python-requests/2.13.0 20170829021725
Python-urllib/2.7 20170829174913
END_UNKNOWNREFERERBROWSER

# Origin - Pages - Hits 
BEGIN_ORIGIN 6
From0 86 95
From1 1 1
From2 1 1
From3 4 4
From4 73 655
From5 0 0
END_ORIGIN

# Search engine referers ID - Pages - Hits
BEGIN_SEREFERRALS 1
bing 1 1
END_SEREFERRALS

# External page referers - Pages - Hits
# The 25 first Pages must be first (order not required for others)
BEGIN_PAGEREFS 3
http://admin.chefslice.com/dashboard 2 2
https://mawords.com/chefslice.com 1 1
http://www.siteindexed.com/myurl=chefslice.com 1 1
END_PAGEREFS

# Search keyphrases - Number of search
# The 10 first number of search must be first (order not required for others)
BEGIN_SEARCHWORDS 1
amazon 1
END_SEARCHWORDS

# Search keywords - Number of search
# The 25 first number of search must be first (order not required for others)
BEGIN_KEYWORDS 1
amazon 1
END_KEYWORDS

# Errors - Hits - Bandwidth
BEGIN_ERRORS 5
404 80 1223851
301 15 3226
302 22 4672
500 5 43277
206 8 59983
END_ERRORS

# URL with 404 errors - Hits - Last URL referrer
BEGIN_SIDER_404 22
/category/seventeen 2 http://chefslice.com/
/assets/plugins/jquery/jquery.min.js 13 http://chefslice.com/
/assets/img/marker.png 12 http://chefslice.com/
/category/eighteen 1 http://chefslice.com/
/images/not-found.jpg 13 http://chefslice.com/dashboard/category/16/edit
/theme/hydrogen/css/style.css.map 1 -
/wp-login.php 2 -
/ 4 -
/administrator/index.php 2 -
/assets/plugins/jquery/jquery-migrate.min.js 12 http://chefslice.com/
/js/mage/cookies.js 1 -
/category/sixteen 1 http://chefslice.com/
/blog/robots.txt 2 -
/wp-includes/wlwmanifest.xml 2 -
/category/twenty 1 http://chefslice.com/
/admin 1 -
/category/tewnt2 1 http://chefslice.com/
/http%3A%2F%2Fwww%2ECHEFSLICE%2Ecom%2F 1 -
/media/categories/images/chines.jpg 2 -
/xmlrpc.php 2 -
/dashboard 1 -
/assets/todo.json 3 http://chefslice.com/dashboard
END_SIDER_404

# Host - Pages - Hits - Bandwidth - Last visit date - [Start date of last visit] - [Last page of last visit]
# [Start date of last visit] and [Last page of last visit] are saved only if session is not finished
# The 25 first Hits must be first (order not required for others)
BEGIN_VISITOR 45
103.255.6.94 76 371 25872885 20170831173144
79.182.168.25 16 157 4942851 20170831091750
104.238.248.15 10 10 167029 20170830112517
93.159.230.39 6 58 7197462 20170828025318
52.170.89.211 5 5 83300 20170828073024
50.117.89.222 5 5 83300 20170828214053
13.85.16.29 4 4 66144 20170829010818
5.62.61.163 3 17 437976 20170827152340
110.88.44.29 3 3 50094 20170829093146
66.249.88.142 3 15 1785600 20170828152014
70.42.131.170 2 23 6601320 20170829191142
185.147.82.114 2 2 16646 20170830092454
162.242.156.106 2 2 5748 20170829104558
104.45.18.178 2 2 40824 20170831040530
23.101.61.176 2 2 40824 20170831090116
192.241.193.203 2 23 6619839 20170829113253
217.127.234.235 1 1 2851 20170829021725
34.213.87.235 1 1 2849 20170828180710
54.191.242.232 1 1 2873 20170829113251
66.249.88.140 1 14 9224390 20170828152015
38.100.21.171 1 2 45837 20170829071104
106.75.84.197 1 1 4865 20170831092359
206.225.80.193 1 1 0 20170828121232
199.30.228.137 1 1 2875 20170829043938
52.170.87.220 1 1 2855 20170828034753
45.35.109.197 1 1 2775 20170828011617
144.76.219.43 1 1 0 20170829023656
66.249.88.143 0 15 1594202 
45.35.63.242 0 1 2004 
138.128.206.233 1 1 2854 20170828053419
66.102.6.8 1 1 2874 20170830204950
162.244.33.8 1 1 16536 20170828101858
42.61.41.114 1 1 16646 20170829174913
45.35.167.70 0 1 5263 
45.35.63.209 0 1 29532 
45.35.109.221 0 1 1394 
52.43.158.57 1 1 2873 20170829161137
163.172.4.153 1 1 2848 20170828110315
158.69.229.134 1 1 16509 20170827213425
45.35.109.198 0 1 10753 
54.161.112.206 1 1 16646 20170830164301
45.35.63.243 0 1 2581 
202.105.116.213 1 1 2853 20170829025330
54.81.200.177 1 1 2872 20170829140855
167.114.233.118 1 1 16660 20170828200956
END_VISITOR

# Date - Pages - Hits - Bandwidth - Visits
BEGIN_DAY 5
20170827 29 149 8917313 7
20170828 60 235 29982992 25
20170829 31 93 16646238 20
20170830 5 5 52940 4
20170831 40 274 9450429 7
END_DAY

# Session range - Number of visits
BEGIN_SESSION 6
1h+ 1
30s-2mn 2
2mn-5mn 2
30mn-1h 5
15mn-30mn 1
0s-30s 52
END_SESSION

# URL - Pages - Bandwidth - Entry - Exit
# The 25 first Pages must be first (order not required for others)
BEGIN_SIDER 28
/ 89 800336 57 46
/login 16 58736 4 4
/theme/font-awesome/fonts/fontawesome-webfont.woff2 7 503272 1 4
/theme/font-awesome/fonts/fontawesome-webfont.ttf 4 362480 0 2
/dashboard/category/16/edit 4 15403 0 0
/dashboard 4 28419 0 0
/assets/plugins/line-icons-pro/food/webfont/fonts/food-48.woff 3 268032 0 0
/assets/plugins/bootstrap/fonts/glyphicons-halflings-regular.woff2 3 54084 0 1
/assets/plugins/font-awesome/fonts/fontawesome-webfont.woff2 3 231480 0 0
/dashboard/item 3 14514 0 1
/assets/backend/better-weather/ajax/ajax.php 3 4400 0 0
/category/snainish 3 11983 1 1
/category/desert 2 6382 0 0
/assets/backend/better-weather/font/weathericons-regular-webfont.woff 2 64792 0 1
/assets/backend/themify-icons/fonts/themify.woff 2 112216 0 0
/dashboard/category 2 7573 0 0
/assets/backend/font-awesome/fonts/fontawesome-webfont.woff2 2 154320 0 0
/category/russian 2 8190 0 1
/assets/backend/pe-icon-7-stroke/fonts/Pe-icon-7-stroke.woff 2 117112 0 0
/assets/plugins/bootstrap/css/bootstrap.min.css.map 1 101555 0 0
/category/afghani 1 4112 0 1
/theme/font-awesome/fonts/fontawesome-webfont.woff 1 90412 0 1
/category/twenty1 1 3981 0 0
/category/sixteen 1 4067 0 0
/dashboard/user/create 1 20 0 0
/category/seventeen 1 4118 0 0
/assets/plugins/master-slider/masterslider/masterslider.min.js.map 1 53652 0 0
/home 1 2770 0 0
END_SIDER
