AWSTATS DATA FILE 7.4 (build 20140726)
# If you remove this file, all statistics for date 201711 will be lost/reset.
# Last config file used to build this data file was /home/chefslice/tmp/awstats/awstats._wildcard_.chefslice.com.conf.

# Position (offset in bytes) in this file for beginning of each section for
# direct I/O access. If you made changes somewhere in this file, you should
# also remove completely the MAP section (AWStats will rewrite it at next
# update).
BEGIN_MAP 28
POS_GENERAL 2022                
POS_TIME 2703                
POS_VISITOR 13698               
POS_DAY 15086               
POS_DOMAIN 3509                
POS_LOGIN 3797                
POS_ROBOT 3952                
POS_WORMS 4324                
POS_EMAILSENDER 4455                
POS_EMAILRECEIVER 4598                
POS_SESSION 15821               
POS_SIDER 16027               
POS_FILETYPES 4733                
POS_DOWNLOADS 5034                
POS_OS 5082                
POS_BROWSER 5237                
POS_SCREENSIZE 5552                
POS_UNKNOWNREFERER 5626                
POS_UNKNOWNREFERERBROWSER 5843                
POS_ORIGIN 5989                
POS_SEREFERRALS 6131                
POS_PAGEREFS 6275                
POS_SEARCHWORDS 9836                
POS_KEYWORDS 9988                
POS_MISC 2365                
POS_ERRORS 10047               
POS_CLUSTER 3653                
POS_SIDER_404 10193               
END_MAP

# LastLine    = Date of last record processed - Last record line number in last log - Last record offset in last log - Last record signature value
# FirstTime   = Date of first visit for history file
# LastTime    = Date of last visit for history file
# LastUpdate  = Date of last update - Nb of parsed records - Nb of parsed old records - Nb of parsed new records - Nb of parsed corrupted - Nb of parsed dropped
# TotalVisits = Number of visits
# TotalUnique = Number of unique visitors
# MonthHostsKnown   = Number of hosts known
# MonthHostsUnKnown = Number of hosts unknown
BEGIN_GENERAL 8
LastLine 20171201022156 69 17288 10281201998037
FirstTime 20171101055001
LastTime 20171130172001
LastUpdate 20171201073153 69 0 68 0 0
TotalVisits 90                  
TotalUnique 33                  
MonthHostsKnown 0                   
MonthHostsUnknown 33                  
END_GENERAL

# Misc ID - Pages - Hits - Bandwidth
BEGIN_MISC 10
AddToFavourites 0 148 0
QuickTimeSupport 0 0 0
PDFSupport 0 0 0
JavaEnabled 0 0 0
JavascriptDisabled 0 0 0
TotalMisc 0 0 0
RealPlayerSupport 0 0 0
FlashSupport 0 0 0
DirectorSupport 0 0 0
WindowsMediaPlayerSupport 0 0 0
END_MISC

# Hour - Pages - Hits - Bandwidth - Not viewed Pages - Not viewed Hits - Not viewed Bandwidth
BEGIN_TIME 24
0 4 4 27623 5 10 175464
1 54 112 1356886 7 16 64621
2 317 653 9488608 8 39 4638453
3 7 57 7277390 2 6 10509
4 83 303 20921736 14 36 153258
5 45 183 9552766 13 51 597928
6 265 448 5244741 47 111 2278143
7 104 179 14727597 6 30 3060096
8 122 123 130910 5 19 111886
9 2 2 9855 0 4 7103
10 235 496 19952170 31 57 4191290
11 15 31 240283 3 21 646305
12 69 169 1810877 7 15 307044
13 3 3 24640 3 22 176377
14 11 50 4001675 6 14 411575
15 78 137 1703323 9 13 388601
16 186 204 1697708 13 15 292284
17 29 31 276531 1 3 7174
18 47 47 224823 0 3 128729
19 75 76 729810 3 21 791577
20 5 5 7087 2 4 141840
21 26 110 8172313 2 5 618
22 39 91 3076414 5 14 14886
23 34 94 13518047 4 26 3958769
END_TIME

# Domain - Pages - Hits - Bandwidth
# The 25 first Pages must be first (order not required for others)
BEGIN_DOMAIN 4
pk 1067 2495 114479282
ru 552 663 6335677
il 194 408 2510204
us 42 42 848650
END_DOMAIN

# Cluster ID - Pages - Hits - Bandwidth
BEGIN_CLUSTER 0
END_CLUSTER

# Login - Pages - Hits - Bandwidth - Last visit
# The 10 first Pages must be first (order not required for others)
BEGIN_LOGIN 0
END_LOGIN

# Robot ID - Hits - Bandwidth - Last visit - Hits on robots.txt
# The 25 first Hits must be first (order not required for others)
BEGIN_ROBOT 6
bot[\s_+:,\.\;\/\\-] 56 325431 20171130185830 22
googlebot 28 180408 20171127073648 3
spider 17 118005 20171128192345 0
unknown 6 224 20171126224308 6
[\s_+:,\.\;\/\\-]bot 3 100043 20171130185834 0
googlebot\-image 2 78629 20171101191358 0
END_ROBOT

# Worm ID - Hits - Bandwidth - Last visit
# The 5 first Hits must be first (order not required for others)
BEGIN_WORMS 0
END_WORMS

# EMail - Hits - Bandwidth - Last visit
# The 20 first Hits must be first (order not required for others)
BEGIN_EMAILSENDER 0
END_EMAILSENDER

# EMail - Hits - Bandwidth - Last visit
# The 20 first hits must be first (order not required for others)
BEGIN_EMAILRECEIVER 0
END_EMAILRECEIVER

# Files type - Hits - Bandwidth - Bandwidth without compression - Bandwidth after compression
BEGIN_FILETYPES 12
php 7 11386 0 0
woff 37 1955712 0 0
html 297 2310928 0 0
woff2 49 3147412 0 0
js 590 4296224 0 0
map 35 3554425 0 0
png 288 12753731 0 0
jpg 343 91433464 0 0
Unknown 1428 2194886 0 0
ttf 2 70015 0 0
ico 6 119478 0 0
css 526 2326152 0 0
END_FILETYPES

# Downloads - Hits - Bandwidth
BEGIN_DOWNLOADS 0
END_DOWNLOADS

# OS ID - Hits
BEGIN_OS ID - Hits - Pages 7
Unknown 2 2
win8.1 151 63
winxp 1 1
winnt 3114 1611
ios_ipad 301 139
win7 5 5
linux 34 34
END_OS

# Browser ID - Hits - Pages
BEGIN_BROWSER 13
netscape5.0 5 5
Unknown 1 1
msie6.0 1 1
firefox57.0 634 545
chrome61.0.3163.100 1150 501
chrome62.0.3202.89 151 63
w3c_validator 1 1
chrome49.0.2623.75 34 34
chrome62.0.3202.75 43 7
safari9.0 39 12
firefox56.0 366 165
safari11.0 262 127
chrome62.0.3202.94 921 393
END_BROWSER

# Screen size - Hits
BEGIN_SCREENSIZE 0
END_SCREENSIZE

# Unknown referer OS - Last visit date
BEGIN_UNKNOWNREFERER 2
Validator.nu/LV_http://validator.w3.org/services 20171112102831
W3C_Validator/1.3_http://validator.w3.org/services 20171112102830
END_UNKNOWNREFERER

# Unknown referer Browser - Last visit date
BEGIN_UNKNOWNREFERERBROWSER 1
Validator.nu/LV_http://validator.w3.org/services 20171112102831
END_UNKNOWNREFERERBROWSER

# Origin - Pages - Hits 
BEGIN_ORIGIN 6
From0 152 152
From1 0 0
From2 0 0
From3 1677 3430
From4 26 26
From5 0 0
END_ORIGIN

# Search engine referers ID - Pages - Hits
BEGIN_SEREFERRALS 0
END_SEREFERRALS

# External page referers - Pages - Hits
# The 25 first Pages must be first (order not required for others)
BEGIN_PAGEREFS 59
http://nerdsinn.chefslice.com 733 1411
http://nerdsinn.chefslice.com/special 319 408
http://nerdsinn.chefslice.com/snainish 194 288
http://nerdsinn.chefslice.com/chines 52 155
http://nerdsinn.chefslice.com/afghani 40 76
http://nerdsinn.chefslice.com/page/home 31 47
http://nerdsinn.chefslice.com/russian 29 55
http://nerdsinn.chefslice.com/theme/font-awesome/css/font-awesome.min.css 29 29
http://nerdsinn.chefslice.com/chines-foods 23 32
http://nerdsinn.chefslice.com/dashboard/theme 16 128
http://admin.chefslice.com/dashboard 12 204
http://nerdsinn.chefslice.com 11 37
http://nerdsinn.chefslice.com/sea-foods 11 29
http://admin.chefslice.com/dashboard/category/create 10 35
http://nerdsinn.chefslice.com/page/about 9 9
http://nerdsinn.chefslice.com/sea-foods-he 9 9
http://admin.chefslice.com/dashboard/category 9 9
http://nerdsinn.chefslice.com/assets/backend/font-awesome/css/font-awesome.min.css 8 8
http://nerdsinn.chefslice.com/dashboard 8 181
http://admin.chefslice.com/assets/backend/themify-icons/themify-icons.css 8 8
http://admin.chefslice.com/assets/backend/pe-icon-7-stroke/css/pe-icon-7-stroke.css 8 8
http://nerdsinn.chefslice.com/assets/backend/themify-icons/themify-icons.css 8 8
http://nerdsinn.chefslice.com/assets/backend/pe-icon-7-stroke/css/pe-icon-7-stroke.css 8 8
http://admin.chefslice.com/assets/backend/font-awesome/css/font-awesome.min.css 8 8
http://nerdsinn.chefslice.com/dashboard/item 7 7
http://admin.chefslice.com/dashboard/home-page/map 1 3
http://admin.chefslice.com/assets/backend/better-weather/css/bw-style.min.css 5 10
http://israel.dev/front 3 8
http://admin.chefslice.com/dashboard/user 3 3
http://nerdsinn.chefslice.com/assets/backend/bootstrap/css/bootstrap.min.css 2 2
http://admin.chefslice.com/dashboard/category/2/edit 3 3
http://admin.chefslice.com/assets/plugins/jClocksGMT/css/jClocksGMT.css 0 5
http://admin.chefslice.com/dashboard/home-page/how-work 1 1
http://admin.chefslice.com/dashboard/home-page/clients 1 1
http://admin.chefslice.com/dashboard/home-page/site-about 3 3
http://admin.chefslice.com/dashboard/home-page/site-info 3 5
http://nerdsinn.chefslice.com/sweets 2 11
http://nerdsinn.chefslice.com/seafood 2 2
http://nerdsinn.chefslice.com/dashboard/category 2 2
http://admin.chefslice.com/dashboard/home-page/services 5 71
http://admin.chefslice.com/dashboard/analytic/sources 1 1
http://admin.chefslice.com/dashboard/analytic/countries 1 1
http://nerdsinn.chefslice.com/dashboard/item/42/edit 0 2
http://admin.chefslice.com/dashboard/analytic/os 1 1
http://nerdsinn.chefslice.com/dashboard/profile 1 1
http://nerdsinn.chefslice.com/%D7%9E%D7%96%D7%95%D7%A0%D7%95%D7%AA%20%D7%A1%D7%99%D7%A0%D7%99%D7%99%D7%9D 4 39
http://nerdsinn.chefslice.com/dashboard/category/1/edit 4 5
http://nerdsinn.chefslice.com/page/contact 4 4
http://nerdsinn.chefslice.com/dashboard/item/134/edit 2 14
http://admin.chefslice.com/dashboard/analytic/sites 1 1
http://admin.chefslice.com/dashboard/user/create 1 1
http://admin.chefslice.com/dashboard/home-page/pricing 1 1
http://israel.dev/frontlogin 0 1
http://admin.chefslice.com/dashboard/analytic/browsers 1 1
http://admin.chefslice.com/assets/backend/bootstrap/css/bootstrap.min.css 1 1
http://admin.chefslice.com/dashboard/category/1/edit 6 7
http://admin.chefslice.com/dashboard/home-page/menu 2 2
http://admin.chefslice.com/dashboard/home-page/slider 7 17
http://nerdsinn.chefslice.com/dashboard/item/create 3 3
END_PAGEREFS

# Search keyphrases - Number of search
# The 10 first number of search must be first (order not required for others)
BEGIN_SEARCHWORDS 0
END_SEARCHWORDS

# Search keywords - Number of search
# The 25 first number of search must be first (order not required for others)
BEGIN_KEYWORDS 0
END_KEYWORDS

# Errors - Hits - Bandwidth
BEGIN_ERRORS 5
301 8 2096
302 83 28667
206 41 15215409
404 142 5730655
500 18 773143
END_ERRORS

# URL with 404 errors - Hits - Last URL referrer
BEGIN_SIDER_404 62
/images/img_3.jpg 1 http://nerdsinn.chefslice.com/
/images/img_1.jpg 1 http://nerdsinn.chefslice.com/
/images/img_20.jpg 1 http://nerdsinn.chefslice.com/
/images/img_25.jpg 1 http://nerdsinn.chefslice.com/
/js/main.js 1 http://nerdsinn.chefslice.com/
/assets/todo.json 7 http://admin.chefslice.com/dashboard
/images/img_18.jpg 1 http://nerdsinn.chefslice.com/
/js/jquery.magnific-popup.min.js 1 http://nerdsinn.chefslice.com/
/images/img_6.jpg 1 http://nerdsinn.chefslice.com/
/images/img_26.jpg 1 http://nerdsinn.chefslice.com/
/images/img_27.jpg 1 http://nerdsinn.chefslice.com/
/images/img_5.jpg 1 http://nerdsinn.chefslice.com/
/images/img_12.jpg 1 http://nerdsinn.chefslice.com/
/images/img_24.jpg 1 http://nerdsinn.chefslice.com/
/assets/plugins/bootstrap/js/bootstrap-toggle.min.js 3 http://nerdsinn.chefslice.com/dashboard/item/create
/images/img_11.jpg 1 http://nerdsinn.chefslice.com/
/images/img_29.jpg 1 http://nerdsinn.chefslice.com/
/images/img_7.jpg 1 http://nerdsinn.chefslice.com/
/ 14 -
/images/img_13.jpg 1 http://nerdsinn.chefslice.com/
/images/img_16.jpg 1 http://nerdsinn.chefslice.com/
/page/facebook 5 -
/apple-touch-icon-precomposed.png 10 -
/images/1ba65a281b7181e9190d012bfb0649f0.jpg 1 http://admin.chefslice.com/dashboard/home-page/slider
/js/salvattore.min.js 1 http://nerdsinn.chefslice.com/
/images/img_30.jpg 1 http://nerdsinn.chefslice.com/
/images/img_10.jpg 1 http://nerdsinn.chefslice.com/
/assets/home/img/4.jpg 2 http://admin.chefslice.com/dashboard/home-page/map
/images/img_28.jpg 1 http://nerdsinn.chefslice.com/
/css/animate.css 1 http://nerdsinn.chefslice.com/
/js/jquery.waypoints.min.js 1 http://nerdsinn.chefslice.com/
/assets/plugins/bootstrap/css/bootstrap-toggle.min.css 3 http://nerdsinn.chefslice.com/dashboard/item/create
/images/img_9.jpg 1 http://nerdsinn.chefslice.com/
/images/img_15.jpg 1 http://nerdsinn.chefslice.com/
/media/items/images/884021e875027d2c98f2938f9ca30bbd.jpg 1 http://nerdsinn.chefslice.com/special
/css/icomoon.css 1 http://nerdsinn.chefslice.com/
/images/img_22.jpg 1 http://nerdsinn.chefslice.com/
/apple-touch-icon.png 10 -
/images/img_19.jpg 1 http://nerdsinn.chefslice.com/
/css/magnific-popup.css 1 http://nerdsinn.chefslice.com/
/images/img_4.jpg 1 http://nerdsinn.chefslice.com/
/images/img_17.jpg 1 http://nerdsinn.chefslice.com/
/css/style.css 1 http://nerdsinn.chefslice.com/
/apple-touch-icon-152x152.png 10 -
/page/calendar 7 -
/js/bootstrap.min.js 1 http://nerdsinn.chefslice.com/
/apple-touch-icon-152x152-precomposed.png 10 -
/images/img_21.jpg 1 http://nerdsinn.chefslice.com/
/js/modernizr-2.6.2.min.js 1 http://nerdsinn.chefslice.com/
/page/amazon 2 -
/css/salvattore.css 1 http://nerdsinn.chefslice.com/
/assets/home/img/96d6f2e7e1f705ab5e59c84a6dc009b2.png 2 http://admin.chefslice.com/dashboard/home-page/site-info
/images/img_14.jpg 1 http://nerdsinn.chefslice.com/
/wp-admin 1 -
/images/img_8.jpg 1 http://nerdsinn.chefslice.com/
/js/jquery.easing.1.3.js 1 http://nerdsinn.chefslice.com/
/page/apple 5 -
/js/jquery.min.js 1 http://nerdsinn.chefslice.com/
/page/twitter 2 -
/images/img_2.jpg 1 http://nerdsinn.chefslice.com/
/images/img_23.jpg 1 http://nerdsinn.chefslice.com/
/page/youtube 4 -
END_SIDER_404

# Host - Pages - Hits - Bandwidth - Last visit date - [Start date of last visit] - [Last page of last visit]
# [Start date of last visit] and [Last page of last visit] are saved only if session is not finished
# The 25 first Hits must be first (order not required for others)
BEGIN_VISITOR 33
83.234.179.67 551 662 6325206 20171130172001
39.43.74.67 493 1030 65329588 20171113051825
39.43.69.76 315 696 9832230 20171123104943
58.65.183.10 171 402 13819024 20171113022035
79.180.9.30 68 147 1999024 20171127123438
203.175.79.17 63 151 9850356 20171112104654
109.67.37.32 61 108 156554 20171111060424
79.183.92.57 36 82 113843 20171118121257
46.19.86.33 14 54 168737 20171130111740
103.255.7.25 13 122 8562737 20171101100416
46.19.85.103 11 13 30502 20171120125553
66.249.93.11 9 9 81215 20171126122938
103.255.6.91 7 43 5765363 20171101055843
66.249.93.7 7 7 62631 20171122133633
66.249.93.9 6 6 55091 20171127075020
103.255.6.70 5 51 1319984 20171117043330
66.249.93.220 3 3 29950 20171119233859
104.45.18.178 3 3 391652 20171113021001
66.249.93.219 2 2 19680 20171117042610
66.249.93.42 2 2 14175 20171109062320
66.249.93.221 2 2 19676 20171116095758
46.19.85.198 2 2 19675 20171113084121
109.64.82.202 1 1 10052 20171120191943
66.249.93.40 1 1 7083 20171106010115
23.101.61.176 1 1 64538 20171112100745
104.209.188.207 1 1 64538 20171112101741
5.29.230.81 1 1 11817 20171126110107
66.102.6.170 1 1 7087 20171101100303
128.30.52.96 1 1 8582 20171112102830
128.30.52.64 1 1 8584 20171112102831
185.101.71.103 1 1 10471 20171124184807
52.77.231.49 1 1 7086 20171109035417
66.249.93.32 1 1 7082 20171109233608
END_VISITOR

# Date - Pages - Hits - Bandwidth - Visits
BEGIN_DAY 29
20171101 22 167 14342272 4
20171102 1 1 7084 1
20171103 2 2 14166 2
20171104 1 1 7088 1
20171105 1 1 7089 1
20171106 1 1 7083 1
20171107 1 1 7087 1
20171109 3 3 21254 3
20171110 65 266 11844345 5
20171111 135 316 25269871 7
20171112 219 375 23966629 11
20171113 384 749 28682496 8
20171114 1 1 9841 1
20171115 2 2 19676 2
20171116 1 1 9835 1
20171117 7 53 1339664 3
20171118 36 82 113843 1
20171119 2 2 20106 2
20171120 12 14 40554 2
20171121 2 2 20100 2
20171122 1 1 10050 1
20171123 316 697 9842210 3
20171124 2 2 20951 2
20171125 261 328 2583219 5
20171126 36 40 148588 4
20171127 109 183 3643307 4
20171128 119 153 1608366 5
20171129 95 102 269179 4
20171130 18 62 297860 3
END_DAY

# Session range - Number of visits
BEGIN_SESSION 7
30s-2mn 7
30mn-1h 7
2mn-5mn 4
1h+ 6
5mn-15mn 5
0s-30s 53
15mn-30mn 8
END_SESSION

# URL - Pages - Bandwidth - Entry - Exit
# The 25 first Pages must be first (order not required for others)
BEGIN_SIDER 58
/heatmap 1177 12200 8 17
/ 207 2248288 70 51
/media/categories/images/ 90 62640 0 3
/special 48 548171 1 3
/assets/plugins/bootstrap/css/bootstrap.min.css.map 35 3554425 1 5
/theme/font-awesome/fonts/fontawesome-webfont.woff2 31 2013088 1 2
/dashboard/theme 25 116300 1 3
/dashboard 18 86390 4 2
/snainish 16 516535 2 1
/assets/backend/font-awesome/fonts/fontawesome-webfont.woff2 15 1080240 0 0
/assets/backend/themify-icons/fonts/themify.woff 15 785512 0 1
/assets/backend/pe-icon-7-stroke/fonts/Pe-icon-7-stroke.woff 15 819784 0 0
/dashboard/category 13 50671 0 0
/dashboard/category/1/edit 10 40191 0 0
/dashboard/category/create 9 36971 0 0
/chines 9 119391 1 0
/items 8 176 0 0
/dashboard/item 8 33329 0 0
/assets/backend/better-weather/ajax/ajax.php 7 11386 0 0
/sea-foods 7 63581 0 0
/chines-foods 6 58644 0 0
/dashboard/home-page/services 6 130375 0 0
/page/home 5 15915 0 0
/russian 5 54419 0 0
/dashboard/home-page/slider 5 21905 0 0
/seafood 1 9352 0 0
/dashboard/analytic/os 1 3605 0 0
/dashboard/item/create 4 16034 0 0
/dashboard/analytic/sources 1 3661 0 0
/sweets 1 8988 0 0
/dashboard/user/create 1 3815 0 0
/%D7%9E%D7%96%D7%95%D7%A0%D7%95%D7%AA%20%D7%A1%D7%99%D7%A0%D7%99%D7%99%D7%9D 4 35161 0 0
/dashboard/home-page/site-about 2 7807 0 0
/dashboard/analytic/sites 1 3636 0 0
/dashboard/home-page/pricing 1 3860 0 0
/dashboard/item/134/edit 3 12517 0 0
/dashboard/analytic/browsers 1 3599 0 0
/assets/backend/bootstrap/fonts/glyphicons-halflings-regular.woff2 3 54084 0 0
/assets/backend/font-awesome/fonts/fontawesome-webfont.woff 1 98024 0 0
/dashboard/user 3 11439 0 0
/page/about 2 16476 0 0
/afghani 4 46954 0 0
/page/contact 1 2610 0 0
/dashboard/home-page/clients 1 3906 0 0
/theme/font-awesome/fonts/fontawesome-webfont.woff 1 90412 0 0
/dashboard/home-page/how-work 1 3861 0 0
/assets/backend/themify-icons/fonts/themify.ttf 1 41006 0 0
/dashboard/home-page/site-info 4 16563 0 0
/dashboard/home-page/map 2 8061 0 1
/dashboard/item/42/edit 1 4357 0 1
/dashboard/profile 1 3338 1 0
/dashboard/analytic/countries 1 3597 0 0
/sea-foods-he 4 36351 0 0
/dashboard/category/2/edit 3 12462 0 0
/dashboard/settings/dashboard 2 0 0 0
/assets/backend/better-weather/font/weathericons-regular-webfont.woff 5 161980 0 0
/assets/backend/pe-icon-7-stroke/fonts/Pe-icon-7-stroke.ttf 1 29009 0 0
/dashboard/home-page/menu 2 7712 0 0
END_SIDER
