{
  "type": "service_account",
  "project_id": "barbadossotheby-1490038827958",
  "private_key_id": "36d761700ab081fb7df0144eaad7c8adfe1ca74f",
  "private_key": "-----BEGIN PRIVATE KEY-----\nMIIEvAIBADANBgkqhkiG9w0BAQEFAASCBKYwggSiAgEAAoIBAQDACb3XOtmUB3y7\nF44WXeSTg5/EXnWtYUr7mZzxx3n78KyMF20ZzK2Y/TvX3exaNlOxPjyeFPGynddH\nzn9xhd+yrCj85bV9YVQjpmqXhkYr2Ke4xpWZItb6OeAZOWpoMzqfsQ+wVi5+FDXp\nBje76nSav0iVOhLny9N9kS1B0qXmA9drZOXXqjHadZVhPwudi+XsxJq7ZwPsHd4/\nsD/uL2fHmeHLKMSZ9NFrlwGUIcusNHjSHrzY2u/6oIO+KFqVK3d2oPex8PQuS7gc\nQKmKjXIaGPR0wZ9+BRklu4ZjKd5qJv+7qPGY4pdSh/cHWPGTaUMMTxYUpnF9KMVX\nVSo37dWDAgMBAAECggEAGNMpj2E0L0aogScSXyHUIp2pUaFEZR1mrA+3kinPQxph\ns9pzaBpldpmF2un9W8waFZeODoF2nTh6U/YF048S0+4dflPTmlmynsksjln1SEXB\nqMlDHYC7ea1xotEhSEcXFP22oX0ClZnXPkBnhAtS944yu9e+Cej3dgwGZbPtbkZn\ngRtG/xUNYRstjz1DWt0lnD2DjyDkA2OzqaXYvFmhoVyF1MMw9KiB7Gtu7mRUfGcW\neGJkwkiOdCcUWAoPCAWxD7fWWj5T14MMIbRWg6C4FW+CB822n1M6X9OacQ2SrQaB\niCANJjgnbuwvj5j01w8cm7Q74V108Wajl0NaSyGDAQKBgQDkO1NS/tMtiDHpXTjP\nEx+34/bKbfFCVKj7EK5KRSFXcL4Yjce3B34UjNpM4F6hAB4ePKgx4YJUIUhqcfQT\nBnNiAkjun88uwM1IEdn2VX4YFyYc9SmZbKrfuA/PfT0WDam2m075QuDzCkiy1idE\nnY82TnwJD9tQuVnIljhcTzzHkQKBgQDXZxnKIjStHBkqnPV6a/LQMsWZxXgUIvKe\nnDo2YS/31VfSYw8sRv9cwFuq+kBMvCz9h+ZP10ayq/jW2LO0COVBh2n7eHy47DKp\n6f6BKywBl2NEDzGTFxklRZp7iCFeZtkwgrDWD74GsoCU0XNLTEY8wx4AhVt/E7cl\nbfybMJ1J0wKBgEm3n8I+7JbYVsa5hY/c7XHH//6CZFq4XZw6VxFGIu7LS5tCsC8+\nDEs284vBLM9z6kZ58RmrbR0fYvR+ugcrHjmZ41Sv6YuAWs3cdjpKgt/lGjpgNX+I\nyehY20J5gTGOWDLTFz8Livz1ZWXeJfDTs14nG4kRxhTcyVMwsiOetFMBAoGAZtDN\nnJArOJ363T5CZgb0xbAWZcm+AU6VJGRJ3P8S2Gc7Hi8uZOIWrf0bREdjPb1sdC/U\nHTQSiOJRSqvxSvQcCeVLDz95uQL1Q+lvE9S5kqDiPvBJp34VAJdyn5hg5SCOdvtK\n0UJ+X9AAVAiN0dk8hXBU98av375XY0RWmPThfwUCgYAcT419kcsRlTmAQizqoSY8\nTNjo/YPLxdTDChC6gP0gjNlHKc6vADC8o+W0gTK9dtxJCVekldjrUQnVT+WApLzV\nuh/YIjZBHs4dzT6UGJZo0KyxEzS5CsAhpDeRDC75fmlBbwKKZgTa68AdKeR2/ceU\nY9CXwUfU8aGPKzQkccJb2A==\n-----END PRIVATE KEY-----\n",
  "client_email": "analytic@barbadossotheby-1490038827958.iam.gserviceaccount.com",
  "client_id": "111525952925851180449",
  "auth_uri": "https://accounts.google.com/o/oauth2/auth",
  "token_uri": "https://accounts.google.com/o/oauth2/token",
  "auth_provider_x509_cert_url": "https://www.googleapis.com/oauth2/v1/certs",
  "client_x509_cert_url": "https://www.googleapis.com/robot/v1/metadata/x509/analytic%40barbadossotheby-1490038827958.iam.gserviceaccount.com"
}
